<svg width="24" height="24" viewBox="0 0 24 24" fill="none" xmlns="http://www.w3.org/2000/svg">
<path fill-rule="evenodd" clip-rule="evenodd" d="M5.59766 9.71875H20.9609C21.4922 9.71875 21.918 10.1445 21.918 10.6758C21.918 11.207 21.4883 11.6367 20.957 11.6367V15.1562C20.957 16.6367 19.8359 17.8594 18.3984 18.0195V18.6797H19.3594V19.3203H4.63672V18.6836H5.59766V18.0234C4.16016 17.8633 3.03906 16.6406 3.03906 15.1602V11.6406C2.50781 11.6406 2.07812 11.207 2.07812 10.6797C2.07812 10.1523 2.50781 9.71875 3.03906 9.71875H4.95703V4.4375C4.95703 3.46875 5.74609 2.67578 6.71875 2.67578C7.69141 2.67578 8.48047 3.46875 8.48047 4.4375V4.91797H8.80078V5.55859H7.51953V4.91797H7.83984V4.4375C7.83984 3.82031 7.33594 3.31641 6.71875 3.31641C6.10156 3.31641 5.59766 3.82031 5.59766 4.4375V9.71875ZM6.23828 18.0391V18.6797H17.7617V18.0391H6.23828ZM18.0781 17.4023C19.3164 17.4023 20.3203 16.3945 20.3203 15.1602V11.6406H3.67578V15.1602C3.67578 16.3984 4.68359 17.4023 5.91797 17.4023H18.0781ZM3.03906 11H20.9609C21.1367 11 21.2812 10.8555 21.2812 10.6797C21.2812 10.5039 21.1367 10.3594 20.9609 10.3594H3.03906C2.86328 10.3594 2.71875 10.5039 2.71875 10.6797C2.71875 10.8555 2.86328 11 3.03906 11ZM11.6797 14.1992H12.3203V14.8398H11.6797V14.1992ZM11.0391 14.1992H10.3984V14.8398H11.0391V14.1992ZM12.961 14.1992H13.6016V14.8398H12.961V14.1992Z" fill="#242525"/>
</svg>
