<svg width="24" height="24" viewBox="0 0 24 24" fill="none" xmlns="http://www.w3.org/2000/svg">
<path fill-rule="evenodd" clip-rule="evenodd" d="M3 12C3 16.9623 7.03768 21 12 21C16.9623 21 21 16.9623 21 12C21 7.03768 16.9623 3 12 3C7.03768 3 3 7.03768 3 12ZM3.94737 12C3.94737 7.55968 7.55968 3.94737 12 3.94737C16.4403 3.94737 20.0526 7.55968 20.0526 12C20.0526 16.4403 16.4403 20.0526 12 20.0526C7.55968 20.0526 3.94737 16.4403 3.94737 12ZM14.5067 15.1775C14.5996 15.2694 14.7208 15.3158 14.8421 15.3158C14.9634 15.3158 15.0846 15.2694 15.1775 15.1775C15.3622 14.9928 15.3622 14.6925 15.1775 14.5077L12.4737 11.804V6.31585C12.4737 6.05437 12.2615 5.84216 12 5.84216C11.7385 5.84216 11.5263 6.05437 11.5263 6.31585V12.0001C11.5263 12.1261 11.5765 12.2464 11.6646 12.3354L14.5067 15.1775Z" fill="#242525"/>
</svg>
