<svg width="24" height="24" viewBox="0 0 24 24" fill="none" xmlns="http://www.w3.org/2000/svg">
<path fill-rule="evenodd" clip-rule="evenodd" d="M2.09813 12.2687C2.29064 12.4962 6.8658 17.8331 12.0002 17.8331C17.1345 17.8331 21.7097 12.4962 21.9022 12.2687C22.023 12.1254 22.0339 11.9179 21.9264 11.7629C21.7688 11.5337 17.9837 6.16602 12.0002 6.16602C6.8658 6.16602 2.29064 11.5029 2.09813 11.7304C1.96729 11.8854 1.96729 12.1129 2.09813 12.2687ZM12.0002 16.9997C7.88417 16.9997 3.9707 13.0746 2.97649 11.9996C3.96903 10.9237 7.87834 6.99938 12.0002 6.99938C16.8162 6.99938 20.2155 10.9187 21.0455 11.9771C20.0871 13.0179 16.1511 16.9997 12.0002 16.9997ZM8.66694 11.9996C8.66694 13.838 10.162 15.333 12.0004 15.333C13.8388 15.333 15.3339 13.838 15.3339 11.9996C15.3339 10.1612 13.8388 8.66611 12.0004 8.66611C10.162 8.66611 8.66694 10.1612 8.66694 11.9996ZM9.5003 11.9996C9.5003 10.6212 10.622 9.49947 12.0004 9.49947C13.3788 9.49947 14.5005 10.6212 14.5005 11.9996C14.5005 13.3779 13.3788 14.4996 12.0004 14.4996C10.622 14.4996 9.5003 13.3779 9.5003 11.9996Z" fill="#242525"/>
</svg>
