<svg width="24" height="25" viewBox="0 0 24 25" fill="none" xmlns="http://www.w3.org/2000/svg">
<path d="M18.0646 15.7884C16.6432 15.2907 15.848 15.2612 15.3132 15.7064C14.5972 16.2997 14.4627 17.1115 14.363 17.7133C14.3415 17.8407 14.3031 18.0705 14.2699 18.1585C14.2677 18.1605 14.265 18.1629 14.2633 18.1649C13.9619 18.1297 13.218 17.7993 10.1275 14.708C7.0526 11.6319 6.70891 10.8763 6.67054 10.5685C6.67274 10.5667 6.67494 10.5645 6.67665 10.5628C6.76538 10.5291 6.99663 10.4905 7.13058 10.468C7.72336 10.3702 8.53492 10.2354 9.12746 9.51969C9.56209 8.99689 9.53813 8.17333 9.0463 6.76682C9.03042 6.72084 7.32003 2.1756 5.97093 1.89195C5.76706 1.84891 5.57933 1.82812 5.39722 1.82812C4.80786 1.82812 4.39694 2.04404 3.92223 2.32525L3.81516 2.38809C2.87845 2.94047 1.63129 4.1768 1.26877 5.13827C0.399278 7.44097 1.49757 13.0083 6.66247 18.1747C10.829 22.3429 15.2398 23.8281 17.9784 23.8281C18.6501 23.8281 19.2434 23.7386 19.6929 23.5684C20.6541 23.2061 21.89 21.9582 22.4417 21.0202L22.5033 20.9151C22.803 20.4094 23.1425 19.8362 22.9374 18.8645C22.6539 17.5142 18.1099 15.8043 18.0646 15.7884ZM21.7607 20.4769L21.6983 20.583C21.2317 21.3758 20.1451 22.4759 19.3883 22.7615C19.1419 22.8547 18.6973 22.9657 17.9784 22.9657C15.4124 22.9657 11.2524 21.5467 7.27212 17.5643C1.96422 12.255 1.4812 7.01721 2.07544 5.44271C2.36096 4.6859 3.46047 3.59874 4.25248 3.13243L4.36028 3.06909C4.75677 2.83386 5.02444 2.6913 5.39722 2.6913C5.51895 2.6913 5.64802 2.70622 5.79249 2.73703C6.28602 2.85831 7.64612 5.37302 8.23181 7.05193C8.47846 7.75763 8.71875 8.66263 8.46355 8.96975C8.07585 9.43753 7.49872 9.53363 6.9822 9.61897C6.54831 9.6911 6.27209 9.74783 6.09633 9.9234C5.93842 10.0806 5.80226 10.2163 5.803 10.4706C5.80153 11.1321 6.067 11.8671 9.51686 15.3184C12.9565 18.7589 13.7174 19.0322 14.3618 19.0322C14.6172 19.0322 14.7526 18.8955 14.9079 18.7393C15.0836 18.5632 15.1403 18.2879 15.2144 17.8458C15.2987 17.3362 15.3946 16.7589 15.8629 16.3706C15.9025 16.3378 15.9944 16.261 16.2758 16.261C16.6251 16.261 17.1306 16.3762 17.7791 16.6031C19.4568 17.1885 21.9706 18.5491 22.0924 19.043C22.2232 19.657 22.0689 19.9565 21.7607 20.4769Z" fill="white"/>
</svg>
