<svg width="24" height="25" viewBox="0 0 24 25" fill="none" xmlns="http://www.w3.org/2000/svg">
<g clip-path="url(#clip0)">
<path d="M24 12.9012C24 6.23272 18.6281 0.828125 12 0.828125C5.37188 0.828125 0 6.23272 0 12.9012C0 18.9283 4.3875 23.9226 10.125 24.8281V16.3911H7.07812V12.9012H10.125V10.2414C10.125 7.21602 11.9156 5.54418 14.6578 5.54418C15.9703 5.54418 17.3438 5.77998 17.3438 5.77998V8.7511H15.8297C14.3391 8.7511 13.875 9.68252 13.875 10.6375V12.9012H17.2031L16.6711 16.3911H13.875V24.8281C19.6125 23.9226 24 18.9283 24 12.9012Z" fill="white"/>
</g>
<defs>
<clipPath id="clip0">
<rect width="24" height="24" fill="white" transform="translate(0 0.828125)"/>
</clipPath>
</defs>
</svg>
