<svg width="192" height="44" viewBox="0 0 192 44" fill="none" xmlns="http://www.w3.org/2000/svg">
<path d="M10.2444 11.4004V12.1452H12.741V17.0723C11.7079 18.0844 10.4357 18.5905 8.92443 18.5905C5.76788 18.5905 3.98873 16.5948 3.58699 12.6035C3.5296 11.9924 3.5009 11.3336 3.5009 10.627C3.5009 5.54709 5.13657 2.86393 8.4079 2.57747C8.59921 2.55838 8.79051 2.54883 8.98182 2.54883C10.9714 2.54883 12.4253 3.26497 13.3436 4.69727C13.8219 5.48025 14.2236 6.52105 14.5488 7.81966H15.3523L15.2088 2.06185L12.6262 2.57747C11.3827 2.00456 10.0627 1.7181 8.66617 1.7181C6.23658 1.7181 4.20873 2.49154 2.58263 4.03841C0.860877 5.66168 0 7.81966 0 10.5124C0 13.7016 1.13827 16.127 3.41481 17.7884C4.96439 18.9151 6.72441 19.4785 8.69486 19.4785C10.3018 19.4785 11.7175 19.1252 12.9419 18.4186L15.8114 19.1921V12.1452H17.8489V11.4004H10.2444Z" fill="white"/>
<path d="M25.4533 18.4759H24.162V6.96029H19.3697V7.67643H21.4072V16.8431C21.4072 17.7025 21.1011 18.2181 20.4889 18.39C20.2211 18.4473 19.848 18.4759 19.3697 18.4759V19.1921H26.1707C26.1707 18.7719 26.0463 18.5428 25.7976 18.5046C25.702 18.4855 25.5872 18.4759 25.4533 18.4759ZM24.4776 2.94987C24.4776 2.22418 24.1524 1.68945 23.502 1.3457C23.2341 1.21202 22.9567 1.14518 22.6698 1.14518C21.9428 1.14518 21.4167 1.46984 21.0915 2.11914C20.9576 2.3865 20.8906 2.66341 20.8906 2.94987C20.8906 3.71376 21.2254 4.24848 21.895 4.55404C22.1437 4.66862 22.4019 4.72591 22.6698 4.72591C23.435 4.72591 23.9802 4.40126 24.3054 3.75195C24.4202 3.50369 24.4776 3.23633 24.4776 2.94987Z" fill="white"/>
<path d="M33.402 18.4759H32.3403L32.369 11.5723C32.5029 10.0254 33.1151 8.93685 34.2055 8.30664C34.6073 8.07747 35.0186 7.96289 35.4395 7.96289C36.5873 7.96289 37.3238 8.53581 37.649 9.68164C37.7447 10.0636 37.7925 10.4646 37.7925 10.8848V16.8431C37.7925 17.6834 37.563 18.1895 37.1038 18.3613C36.836 18.4377 36.4629 18.4759 35.9847 18.4759V19.1921H42.5273C42.5273 18.7719 42.403 18.5428 42.1543 18.5046C42.0586 18.4855 41.9439 18.4759 41.8099 18.4759H40.576V11.2572C40.576 9.21376 39.8682 7.81966 38.4525 7.07487C37.8977 6.76931 37.2856 6.61654 36.616 6.61654C35.2003 6.61654 34.0142 7.1799 33.0577 8.30664C32.7516 8.68859 32.5029 9.09918 32.3116 9.53841L32.1681 6.96029H27.6342V7.67643H29.5855V16.8431C29.5855 17.7025 29.3081 18.2085 28.7533 18.3613C28.4855 18.4377 28.1124 18.4759 27.6342 18.4759V19.1921H34.1194C34.1194 18.7719 33.9951 18.5428 33.7464 18.5046C33.6507 18.4855 33.536 18.4759 33.402 18.4759Z" fill="white"/>
<path d="M54.3214 19.4785C55.6605 19.4785 56.4831 18.877 56.7892 17.6738C56.8849 17.3301 56.9423 16.9386 56.9614 16.4993L56.2153 16.4707C56.0814 17.8266 55.7179 18.5141 55.1249 18.5332C54.6657 18.495 54.4266 18.008 54.4075 17.0723V11.0566C54.3692 8.11567 52.7527 6.63563 49.5578 6.61654C47.243 6.61654 45.7317 7.13216 45.0239 8.16341C44.8135 8.48806 44.7082 8.81272 44.7082 9.13737C44.7082 9.74848 44.9952 10.14 45.5691 10.3118C45.7222 10.35 45.8752 10.3691 46.0282 10.3691C46.6213 10.3691 47.0326 10.054 47.2622 9.42383C47.3004 9.32834 47.3483 9.18511 47.4057 8.99414C47.6544 8.23025 47.9604 7.74327 48.3239 7.5332C48.5918 7.39952 48.917 7.33268 49.2996 7.33268C50.8492 7.37088 51.6335 8.37348 51.6526 10.3405V12.1738C47.0613 12.2311 44.5265 13.2719 44.0482 15.2962C43.9908 15.5636 43.9621 15.8405 43.9621 16.127C43.9621 17.6547 44.6221 18.6764 45.9422 19.1921C46.4396 19.383 46.9848 19.4785 47.5778 19.4785C49.0318 19.4785 50.1987 18.982 51.0787 17.9889C51.3657 17.6452 51.5857 17.2823 51.7387 16.9004C52.0257 18.6 52.8866 19.4594 54.3214 19.4785ZM48.7544 18.304C47.7022 18.304 47.0804 17.6834 46.8891 16.4421C46.8509 16.2129 46.8317 15.9646 46.8317 15.6973C46.8317 14.3987 47.5204 13.5775 48.8978 13.2337C49.6057 13.0618 50.5239 12.9664 51.6526 12.9473V15.4395C51.3274 16.7763 50.6579 17.6643 49.6439 18.1035C49.3378 18.2372 49.0413 18.304 48.7544 18.304Z" fill="white"/>
<path d="M75.0685 19.1921C74.9155 18.7337 74.6572 18.4855 74.2937 18.4473H72.3137V2.74935H73.5189C75.1068 2.76845 76.1781 3.7424 76.7329 5.67122L77.3642 7.84831H78.1964L78.0529 2.00456H63.5901L63.4754 7.84831H64.3075L64.9389 5.67122C65.5128 3.7424 66.5745 2.76845 68.1241 2.74935H69.2432V18.4473H66.5171V19.1921H75.0685Z" fill="white"/>
<path d="M85.6286 18.4759H84.4808V12.002C84.4808 10.2641 85.0547 9.05143 86.2025 8.36393C86.6234 8.11567 87.0538 7.99154 87.4938 7.99154C88.6226 7.99154 89.3686 8.56445 89.7321 9.71029C89.8469 10.1304 89.9043 10.5792 89.9043 11.0566V16.8431C89.9043 17.6643 89.7321 18.1608 89.3878 18.3327C89.1582 18.4282 88.7852 18.4759 88.2686 18.4759V19.1921H94.6391C94.6391 18.7719 94.5148 18.5428 94.2661 18.5046C94.1704 18.4855 94.0556 18.4759 93.9217 18.4759H92.6878V11.2572C92.6878 9.06098 91.9417 7.62869 90.4495 6.96029C89.9521 6.73112 89.4165 6.61654 88.8426 6.61654C87.3504 6.61654 86.1356 7.16081 85.1982 8.24935C84.8921 8.63129 84.6529 9.03234 84.4808 9.45247V0.572266H79.7459V1.28841H81.726V16.8431C81.726 17.7025 81.439 18.2085 80.8651 18.3613C80.5973 18.4377 80.2242 18.4759 79.7459 18.4759V19.1921H86.3173C86.3173 18.791 86.193 18.5618 85.9443 18.5046C85.8486 18.4855 85.7434 18.4759 85.6286 18.4759Z" fill="white"/>
<path d="M99.3166 13.0332C99.5079 9.38563 100.617 7.48546 102.645 7.33268C104.463 7.33268 105.534 8.51671 105.859 10.8848C105.936 11.4959 105.974 12.1738 105.974 12.9186C105.936 16.7763 104.836 18.7242 102.674 18.7624C100.761 18.7624 99.6705 17.4256 99.4026 14.752C99.3453 14.2363 99.3166 13.6634 99.3166 13.0332ZM102.731 6.61654C100.684 6.61654 99.0392 7.31358 97.7957 8.70768C96.7818 9.85352 96.2748 11.2572 96.2748 12.9186C96.2748 15.2294 97.0974 16.9959 98.7426 18.2181C99.8522 19.0584 101.134 19.4785 102.588 19.4785C104.577 19.4785 106.194 18.7719 107.438 17.3587C108.49 16.1556 109.016 14.6947 109.016 12.9759C109.016 10.6651 108.174 8.91775 106.491 7.73372C105.4 6.98893 104.147 6.61654 102.731 6.61654Z" fill="white"/>
<path d="M116.477 18.4759H115.501L115.53 11.5723C115.664 10.0254 116.238 8.9273 117.252 8.27799C117.634 8.04883 118.007 7.93424 118.371 7.93424C119.212 7.93424 119.815 8.41168 120.178 9.36654C120.332 9.80577 120.408 10.3118 120.408 10.8848V16.8431C120.408 17.6643 120.207 18.1608 119.805 18.3327C119.557 18.4282 119.184 18.4759 118.686 18.4759V19.1921H124.827C124.827 18.7719 124.703 18.5428 124.454 18.5046C124.359 18.4855 124.244 18.4759 124.11 18.4759H123.134V11.2572V11.0566C123.383 9.62435 123.995 8.65039 124.971 8.13477C125.277 7.98199 125.583 7.9056 125.889 7.9056C126.788 7.9056 127.419 8.39258 127.783 9.36654C127.955 9.82487 128.041 10.3309 128.041 10.8848V16.8431C128.041 17.6643 127.85 18.1608 127.467 18.3327C127.238 18.4282 126.865 18.4759 126.348 18.4759V19.1921H132.776C132.776 18.7719 132.652 18.5428 132.403 18.5046C132.307 18.4855 132.193 18.4759 132.059 18.4759H130.796V11.1999C130.796 9.25195 130.155 7.8865 128.873 7.10352C128.299 6.77886 127.687 6.61654 127.037 6.61654C125.449 6.61654 124.215 7.33268 123.335 8.76497C123.182 9.01324 123.048 9.27105 122.933 9.53841C122.532 8.08702 121.747 7.17036 120.58 6.78841C120.236 6.67383 119.901 6.61654 119.576 6.61654C118.026 6.61654 116.812 7.29449 115.931 8.65039C115.759 8.93685 115.606 9.22331 115.472 9.50977L115.329 6.96029H110.795V7.67643H112.746V16.8431C112.746 17.7025 112.469 18.2085 111.914 18.3613C111.646 18.4377 111.273 18.4759 110.795 18.4759V19.1921H117.194C117.194 18.7719 117.051 18.5428 116.764 18.5046C116.687 18.4855 116.591 18.4759 116.477 18.4759Z" fill="white"/>
<path d="M138.745 23.9186V18.0462C139.644 18.9629 140.83 19.4403 142.303 19.4785C144.082 19.4785 145.546 18.8101 146.694 17.4733C147.746 16.232 148.272 14.6565 148.272 12.7467C148.272 10.4742 147.621 8.77452 146.32 7.64779C145.517 6.96029 144.541 6.61654 143.393 6.61654C141.691 6.61654 140.371 7.25629 139.433 8.53581C139.127 8.95595 138.888 9.42383 138.716 9.93945L138.573 6.96029H134.067V7.67643H135.99V22.2858C135.99 23.1261 135.732 23.6322 135.215 23.804C134.947 23.8804 134.565 23.9186 134.067 23.9186V24.6348H141.27C141.27 24.2146 141.146 23.9855 140.897 23.9473C140.801 23.9282 140.687 23.9186 140.553 23.9186H138.745ZM142.217 7.84831C143.9 7.84831 144.876 9.10872 145.144 11.6296C145.201 12.0879 145.23 12.5749 145.23 13.0905C145.23 16.0697 144.493 17.8743 143.02 18.5046C142.676 18.6573 142.313 18.7337 141.93 18.7337C140.667 18.7337 139.759 18.0367 139.204 16.6426C138.879 15.8023 138.716 14.7997 138.716 13.6348C138.716 11.2285 139.3 9.51931 140.467 8.50716C141.002 8.06793 141.586 7.84831 142.217 7.84831Z" fill="white"/>
<path d="M154.786 18.7051C156.087 18.7051 156.919 18.2945 157.282 17.4733C157.397 17.225 157.454 16.9672 157.454 16.6999C157.454 15.8405 156.852 15.1053 155.647 14.4941C155.398 14.3605 154.987 14.1695 154.413 13.9212C152.901 13.2719 151.897 12.6704 151.4 12.1165C150.864 11.5054 150.596 10.7893 150.596 9.9681C150.596 8.53581 151.381 7.54275 152.949 6.98893C153.657 6.74067 154.432 6.61654 155.274 6.61654C156.651 6.61654 157.78 6.8839 158.66 7.41862C158.66 6.8648 158.803 6.5497 159.09 6.47331C159.186 6.45421 159.291 6.44466 159.406 6.44466V10.0254H158.602C158.526 8.26845 157.56 7.38043 155.704 7.36133C154.365 7.36133 153.533 7.77192 153.207 8.5931C153.131 8.80317 153.093 9.02279 153.093 9.25195C153.093 10.0731 153.676 10.7797 154.843 11.3717C155.092 11.4863 155.494 11.6582 156.048 11.8874C157.579 12.5367 158.593 13.1382 159.09 13.6921C159.664 14.3414 159.951 15.0957 159.951 15.9551C159.951 17.521 159.128 18.5809 157.483 19.1348C156.814 19.3639 156.068 19.4785 155.245 19.4785C153.734 19.4594 152.442 19.1348 151.371 18.5046C151.371 19.0011 151.247 19.2875 150.998 19.3639C150.883 19.383 150.749 19.3926 150.596 19.3926V15.0384H151.486C151.524 17.4638 152.624 18.686 154.786 18.7051Z" fill="white"/>
<path d="M165.059 13.0332C165.25 9.38563 166.36 7.48546 168.388 7.33268C170.205 7.33268 171.276 8.51671 171.602 10.8848C171.678 11.4959 171.716 12.1738 171.716 12.9186C171.678 16.7763 170.578 18.7242 168.416 18.7624C166.503 18.7624 165.413 17.4256 165.145 14.752C165.088 14.2363 165.059 13.6634 165.059 13.0332ZM168.474 6.61654C166.427 6.61654 164.782 7.31358 163.538 8.70768C162.524 9.85352 162.017 11.2572 162.017 12.9186C162.017 15.2294 162.84 16.9959 164.485 18.2181C165.595 19.0584 166.876 19.4785 168.33 19.4785C170.32 19.4785 171.936 18.7719 173.18 17.3587C174.232 16.1556 174.758 14.6947 174.758 12.9759C174.758 10.6651 173.916 8.91775 172.233 7.73372C171.142 6.98893 169.889 6.61654 168.474 6.61654Z" fill="white"/>
<path d="M182.305 18.4759H181.243L181.272 11.5723C181.406 10.0254 182.018 8.93685 183.109 8.30664C183.51 8.07747 183.922 7.96289 184.343 7.96289C185.49 7.96289 186.227 8.53581 186.552 9.68164C186.648 10.0636 186.696 10.4646 186.696 10.8848V16.8431C186.696 17.6834 186.466 18.1895 186.007 18.3613C185.739 18.4377 185.366 18.4759 184.888 18.4759V19.1921H191.43C191.43 18.7719 191.306 18.5428 191.057 18.5046C190.962 18.4855 190.847 18.4759 190.713 18.4759H189.479V11.2572C189.479 9.21376 188.771 7.81966 187.356 7.07487C186.801 6.76931 186.189 6.61654 185.519 6.61654C184.103 6.61654 182.917 7.1799 181.961 8.30664C181.655 8.68859 181.406 9.09918 181.215 9.53841L181.071 6.96029H176.537V7.67643H178.489V16.8431C178.489 17.7025 178.211 18.2085 177.656 18.3613C177.389 18.4377 177.016 18.4759 176.537 18.4759V19.1921H183.023C183.023 18.7719 182.898 18.5428 182.65 18.5046C182.554 18.4855 182.439 18.4759 182.305 18.4759Z" fill="white"/>
<path d="M5.09651 40.7447H0.710224V32.4536H0V41.3946H5.09651V40.7447Z" fill="white" fill-opacity="0.79"/>
<path d="M13.0877 34.5674H12.3841V38.7688C12.3841 39.8454 11.5949 40.876 10.2994 40.876C9.26041 40.876 8.54361 40.2852 8.54361 39.1101V34.5674H7.83996V39.2677C7.83996 40.8432 8.84611 41.5062 10.1745 41.5062C11.4568 41.5062 12.1342 40.7447 12.3446 40.1277H12.3841V41.3946H13.0877V34.5674Z" fill="white" fill-opacity="0.79"/>
<path d="M20.8554 41.3946H21.6971L19.3034 37.9219L21.6511 34.5674H20.8488L18.9351 37.3836H18.8957L17.0149 34.5674H16.1731L18.5142 37.9876L16.1468 41.3946H16.9425L18.8891 38.5324H18.922L20.8554 41.3946Z" fill="white" fill-opacity="0.79"/>
<path d="M29.9382 34.5674H29.2346V38.7688C29.2346 39.8454 28.4454 40.876 27.1499 40.876C26.1109 40.876 25.3941 40.2852 25.3941 39.1101V34.5674H24.6904V39.2677C24.6904 40.8432 25.6966 41.5062 27.025 41.5062C28.3073 41.5062 28.9847 40.7447 29.1951 40.1277H29.2346V41.3946H29.9382V34.5674Z" fill="white" fill-opacity="0.79"/>
<path d="M33.6878 41.3946H34.3915V37.1473C34.3915 35.8475 35.2069 35.1188 36.3314 35.1188C36.6076 35.1188 36.8246 35.1451 36.9101 35.1648V34.5017C36.8049 34.4886 36.6339 34.4623 36.4103 34.4623C35.1411 34.4623 34.5756 35.2501 34.4309 35.795H34.3915V34.5674H33.6878V41.3946Z" fill="white" fill-opacity="0.79"/>
<path d="M44.8224 34.5674H44.0727L41.975 40.666H41.9421L39.8246 34.5674H39.042L41.6001 41.4865L41.416 42.0117C41.1792 42.7338 40.7386 43.0949 40.0547 43.0949C39.91 43.0949 39.6733 43.0752 39.5286 43.0489V43.6595C39.693 43.6923 39.9363 43.712 40.1139 43.712C41.074 43.712 41.679 43.2065 42.0999 42.0905L42.3564 41.4209L44.8224 34.5674Z" fill="white" fill-opacity="0.79"/>
<path d="M51.493 39.1758C51.5654 40.3837 52.5715 41.5916 54.5904 41.5916C56.4975 41.5916 57.7601 40.6003 57.7601 39.0511C57.7601 37.7184 56.9644 37.0948 55.3664 36.6549L54.084 36.307C53.0647 36.0379 52.5058 35.5652 52.5058 34.679C52.5058 33.6221 53.3541 32.8934 54.7022 32.8934C56.0898 32.8934 56.7803 33.6549 56.8789 34.4755H57.6154C57.5365 33.2348 56.4778 32.2435 54.7153 32.2435C52.9464 32.2435 51.7758 33.261 51.7758 34.6987C51.7758 35.8934 52.5255 36.6353 53.8341 36.9832L55.1559 37.3377C56.3988 37.6659 57.0301 38.1189 57.0301 39.097C57.0301 40.1867 56.1029 40.9417 54.6759 40.9417C53.0647 40.9417 52.3282 40.0161 52.223 39.1758H51.493Z" fill="white" fill-opacity="0.79"/>
<path d="M62.9301 41.5062C64.1467 41.5062 64.7978 40.8235 65.0345 40.3443H65.074V41.3946H65.7579V36.5827C65.7579 35.1057 64.7386 34.4558 63.3642 34.4558C61.9043 34.4558 61.0691 35.1451 60.9836 36.1035H61.6741C61.7793 35.6177 62.2265 35.086 63.3313 35.086C64.3637 35.086 65.0477 35.5652 65.0477 36.6353V37.5084H63.0485C61.5031 37.5084 60.7008 38.3027 60.7008 39.4515C60.7008 40.7053 61.6083 41.5062 62.9301 41.5062ZM63.0682 40.876C62.1476 40.876 61.4308 40.364 61.4308 39.4384C61.4308 38.6703 61.9174 38.1123 63.0551 38.1123H65.0477V39.0707C65.0477 40.1342 64.1599 40.876 63.0682 40.876Z" fill="white" fill-opacity="0.79"/>
<path d="M69.4943 41.3946H70.198V31.9678H69.4943V41.3946Z" fill="white" fill-opacity="0.79"/>
<path d="M76.4465 41.5062C78.1037 41.5062 78.8863 40.4625 78.9718 39.7403H78.2352C78.1432 40.2655 77.5447 40.876 76.4465 40.876C75.1379 40.876 74.3685 39.957 74.3685 38.4931V38.1123H79.0704V37.5543C79.0704 35.5718 77.9525 34.4558 76.3676 34.4558C74.7762 34.4558 73.6648 35.5718 73.6648 37.5543V38.4668C73.6648 40.364 74.6973 41.5062 76.4465 41.5062ZM74.3685 37.5477V37.469C74.3685 35.9788 75.1642 35.086 76.3676 35.086C77.571 35.086 78.3668 35.9788 78.3668 37.469V37.5477H74.3685Z" fill="white" fill-opacity="0.79"/>
<path d="M82.0966 36.3727C82.0966 37.5937 83.037 37.9416 84.3588 38.2502C85.3452 38.4734 86.2462 38.6834 86.2462 39.5828C86.2462 40.4231 85.5162 40.9089 84.4114 40.9089C83.1028 40.9089 82.649 40.2393 82.5964 39.6484H81.9059C81.9059 40.6266 82.7214 41.5062 84.3917 41.5062C85.8187 41.5062 86.9498 40.8366 86.9498 39.504C86.9498 38.2108 85.8516 37.9022 84.5758 37.62C83.5631 37.3836 82.8003 37.1473 82.8003 36.307C82.8003 35.4864 83.5302 35.0597 84.4443 35.0597C85.6543 35.0597 86.1081 35.7818 86.1278 36.2808H86.7986C86.7986 35.388 86.062 34.4558 84.464 34.4558C83.162 34.4558 82.0966 35.0926 82.0966 36.3727Z" fill="white" fill-opacity="0.79"/>
<path d="M100.841 41.3946H101.781L100.289 39.8126C100.775 39.1036 101.045 37.9941 101.065 36.7731C101.071 36.6812 101.071 36.4711 101.071 36.3792H100.4C100.4 36.4646 100.394 36.6746 100.394 36.7534C100.368 37.8169 100.151 38.7819 99.8152 39.3399L97.2702 36.6024C98.5394 35.9591 99.2891 35.3026 99.2891 34.3048C99.2891 33.2282 98.4276 32.3748 97.165 32.3748C95.9681 32.3748 95.008 33.1428 95.008 34.272C95.008 35.0729 95.4946 35.6834 96.2443 36.4514C96.1917 36.4777 95.8563 36.6484 95.8037 36.6746C94.5082 37.3508 93.9953 38.1648 93.9953 39.1101C93.9953 40.6791 95.3368 41.5653 96.8888 41.5653C97.8489 41.5653 98.9931 41.2108 99.8612 40.3377L100.841 41.3946ZM96.8493 36.1757C96.0733 35.388 95.7116 34.9153 95.7116 34.3114C95.7116 33.5236 96.3364 32.9722 97.165 32.9722C98.0133 32.9722 98.592 33.5433 98.592 34.3245C98.592 35.0663 98.0593 35.5849 96.8493 36.1757ZM96.2049 37.1407C96.2509 37.1145 96.6192 36.9241 96.6718 36.8978L99.4206 39.8716C98.7827 40.5938 97.7634 40.9417 96.9217 40.9417C95.7051 40.9417 94.7187 40.2261 94.7187 39.0839C94.7187 38.2173 95.2908 37.62 96.2049 37.1407Z" fill="white" fill-opacity="0.79"/>
<path d="M111.905 32.4536H108.879V41.3946H109.59V37.5937H112.108L113.989 41.3946H114.805L112.832 37.4493C113.923 37.1407 114.653 36.2939 114.653 35.0072C114.653 33.458 113.575 32.4536 111.905 32.4536ZM109.59 36.9504V33.0969H111.806C113.128 33.0969 113.923 33.8256 113.923 35.0466C113.923 36.2545 113.121 36.9504 111.78 36.9504H109.59Z" fill="white" fill-opacity="0.79"/>
<path d="M120.474 41.5062C122.132 41.5062 122.914 40.4625 123 39.7403H122.263C122.171 40.2655 121.573 40.876 120.474 40.876C119.166 40.876 118.396 39.957 118.396 38.4931V38.1123H123.098V37.5543C123.098 35.5718 121.98 34.4558 120.396 34.4558C118.804 34.4558 117.693 35.5718 117.693 37.5543V38.4668C117.693 40.364 118.725 41.5062 120.474 41.5062ZM118.396 37.5477V37.469C118.396 35.9788 119.192 35.086 120.396 35.086C121.599 35.086 122.395 35.9788 122.395 37.469V37.5477H118.396Z" fill="white" fill-opacity="0.79"/>
<path d="M126.447 41.3946H127.15V37.4165C127.15 36.1823 127.841 35.086 129.235 35.086C130.373 35.086 131.004 35.8475 131.004 36.9897V41.3946H131.701V36.7994C131.701 35.2567 130.734 34.4558 129.367 34.4558C127.972 34.4558 127.381 35.2567 127.19 35.8869H127.15V34.5674H126.447V41.3946Z" fill="white" fill-opacity="0.79"/>
<path d="M135.674 34.5674H134.451V35.1648H135.674V39.7075C135.674 40.9417 136.029 41.4537 137.463 41.4537C137.673 41.4537 138.101 41.4275 138.246 41.4012V40.8038C138.107 40.8169 137.772 40.8432 137.595 40.8432C136.674 40.8432 136.371 40.5872 136.371 39.7338V35.1648H138.14V34.5674H136.371V32.8868H135.674V34.5674Z" fill="white" fill-opacity="0.79"/>
</svg>
